…
> 
> suppressPackageStartupMessages({
+   library(phylopomp)
+   library(tidyverse)
+ })
> theme_set(theme_bw())
> set.seed(847110120)
> options(digits=3)
> 
> runMoran(time=10) -> x
> x
<gpsim for model 'Moran'>
> x |> yaml() -> y
> x |> lineages()
# A tibble: 1,749 × 2
      time lineages
 *   <dbl>    <int>
 1 0             67
 2 0.00146       67
 3 0.0112        66
 4 0.0119        66
 5 0.0242        67
 6 0.0260        68
 7 0.0323        69
 8 0.0365        68
 9 0.0371        67
10 0.0375        67
# ℹ 1,739 more rows
…
