…
> 
> suppressPackageStartupMessages({
+   library(tidyverse)
+   library(phylopomp)
+ })
> theme_set(theme_bw())
> set.seed(4963811)
> options(digits=3)
> 
> runSI2R(time=5) |>
+   getInfo(tree=TRUE) |>
+   getElement("tree") -> tree
> 
> tree |> newick2df()
# A tibble: 519 × 5
      time  deme lineages saturation event_type
 *   <dbl> <int>    <int>      <int>      <int>
 1 0           1        8          8         -1
 2 0.00335     1        8          1          1
 3 0.0367      1        8          1          1
 4 0.0795      1        8          1          1
 5 0.0869      1        9          2          2
 6 0.0983      1       10          2          2
 7 0.115       1       11          2          2
 8 0.134       1       11          1          1
 9 0.143       1       12          2          2
10 0.167       1       12          1          1
# ℹ 509 more rows
…
